VMealy/simulation/qsim/lab5.msim.vcd
$comment
	File created using the following command:
		vcd file lab5.msim.vcd -direction
$end
$date
	Fri Nov 20 19:19:32 2020
$end
$version
	ModelSim Version 10.1d
$end
$timescale
	1ps
$end
$scope module lab5_vlg_vec_tst $end
$var reg 1 ! clk $end
$var reg 1 " data_in $end
$var reg 1 # reset $end
$var wire 1 $ current_state [3] $end
$var wire 1 % current_state [2] $end
$var wire 1 & current_state [1] $end
$var wire 1 ' current_state [0] $end
$var wire 1 ( student_id [3] $end
$var wire 1 ) student_id [2] $end
$var wire 1 * student_id [1] $end
$var wire 1 + student_id [0] $end
$var wire 1 , sampler $end
$scope module i1 $end
$var wire 1 - gnd $end
$var wire 1 . vcc $end
$var wire 1 / unknown $end
$var tri1 1 0 devclrn $end
$var tri1 1 1 devpor $end
$var tri1 1 2 devoe $end
$var wire 1 3 clk~combout $end
$var wire 1 4 clk~clkctrl_outclk $end
$var wire 1 5 data_in~combout $end
$var wire 1 6 reset~combout $end
$var wire 1 7 reset~clkctrl_outclk $end
$var wire 1 8 yfsm.s1~regout $end
$var wire 1 9 Selector12~0_combout $end
$var wire 1 : yfsm.s8~regout $end
$var wire 1 ; yfsm.s7~regout $end
$var wire 1 < yfsm.s6~regout $end
$var wire 1 = yfsm.s5~regout $end
$var wire 1 > yfsm.s0~0_combout $end
$var wire 1 ? yfsm.s0~regout $end
$var wire 1 @ yfsm.s4~0_combout $end
$var wire 1 A yfsm.s4~regout $end
$var wire 1 B yfsm.s3~regout $end
$var wire 1 C yfsm.s2~regout $end
$var wire 1 D Selector11~1_combout $end
$var wire 1 E Selector11~0_combout $end
$var wire 1 F Selector11~2_combout $end
$var wire 1 G Selector10~0_combout $end
$var wire 1 H Selector10~1_combout $end
$var wire 1 I Selector9~2_combout $end
$var wire 1 J Selector9~3_combout $end
$var wire 1 K Selector10~2_combout $end
$var wire 1 L Selector8~0_combout $end
$var wire 1 M Selector15~0_combout $end
$var wire 1 N Selector14~0_combout $end
$var wire 1 O Selector15~1_combout $end
$var wire 1 P Selector14~1_combout $end
$var wire 1 Q Selector14~2_combout $end
$var wire 1 R Selector13~0_combout $end
$var wire 1 S Selector13~1_combout $end
$var wire 1 T Selector13~2_combout $end
$upscope $end
$upscope $end
$enddefinitions $end
#0
$dumpvars
0!
1"
0#
0'
0&
1%
0$
0+
0*
0)
0(
x,
0-
1.
x/
10
11
12
03
04
15
06
07
08
09
0:
0;
0<
0=
1>
0?
1@
0A
0B
0C
1D
0E
0F
0G
0H
0I
0J
0K
0L
0M
1N
0O
1P
0Q
0R
1S
1T
$end
#10000
1!
1#
13
16
17
14
0,
#20000
0!
0#
03
06
07
04
1,
#30000
1!
13
14
0,
1A
1?
0N
0S
0@
1Q
1O
0T
1&
1'
0%
#40000
0!
03
04
1,
#50000
1!
13
14
0,
1B
0A
0P
1M
1L
1E
1N
0O
1F
1(
0'
1+
#60000
0!
03
04
1,
#70000
1!
13
14
0,
1C
0B
1K
1J
1G
0D
1P
0M
0L
0E
1H
0Q
1O
0F
1)
0(
1*
0&
1'
0+
#80000
0!
03
04
1,
#90000
1!
13
14
0,
0C
18
0K
0J
0G
1D
1M
19
0H
0O
0)
1$
0*
0'
#100000
0!
03
04
1,
#110000
1!
13
14
0,
1:
08
1S
0N
1L
09
0M
1T
1Q
1O
1(
0$
1%
1&
1'
#120000
0!
03
04
1,
#130000
1!
13
14
0,
1;
0:
0P
1M
1K
1G
1E
1N
0L
0O
1H
1F
0(
0'
1*
1+
#140000
0!
03
04
1,
#150000
1!
13
14
0,
1<
0;
1R
1J
0D
0S
1P
0M
0K
0G
0E
0Q
1O
0F
1)
0&
1'
0+
#160000
0!
03
04
1,
#170000
1!
13
14
0,
1=
0<
0R
1M
1I
0H
1E
0>
0J
1D
0T
0O
1J
1F
0*
0)
0%
0'
1)
1+
#180000
0!
03
04
1,
#190000
1!
13
14
0,
0?
0=
1S
0I
1@
0M
0E
1>
1T
0J
0F
1%
0)
0+
#200000
0!
03
04
1,
#210000
1!
13
14
0,
1A
1?
0N
0S
0@
1Q
1O
0T
1&
1'
0%
#220000
0!
03
04
1,
#230000
1!
13
14
0,
1B
0A
0P
1M
1L
1E
1N
0O
1F
1(
0'
1+
#240000
0!
03
04
1,
#250000
1!
13
14
0,
1C
0B
1K
1J
1G
0D
1P
0M
0L
0E
1H
0Q
1O
0F
1)
0(
1*
0&
1'
0+
#260000
0!
03
04
1,
#270000
1!
13
14
0,
0C
18
0K
0J
0G
1D
1M
19
0H
0O
0)
1$
0*
0'
#280000
0!
03
04
1,
#290000
1!
13
14
0,
1:
08
1S
0N
1L
09
0M
1T
1Q
1O
1(
0$
1%
1&
1'
#300000
0!
03
04
1,
#310000
1!
13
14
0,
1;
0:
0P
1M
1K
1G
1E
1N
0L
0O
1H
1F
0(
0'
1*
1+
#320000
0!
03
04
1,
#330000
1!
13
14
0,
1<
0;
1R
1J
0D
0S
1P
0M
0K
0G
0E
0Q
1O
0F
1)
0&
1'
0+
#340000
0"
0!
05
03
04
1,
1Q
0O
0J
1F
1&
0'
0)
1+
#350000
1#
1!
16
13
14
17
0,
0?
0<
1I
1@
0R
0H
1D
1J
0T
0Q
0*
1)
0%
0&
#359000
0#
0!
06
03
04
07
1,
#370000
1!
13
14
0,
